…
### Documents

#### Search

You can search for documents using the `document_search()` function:


``` r
document_search("test")
```

```
## # A tibble: 50 × 11
##        id globalId name          created             lastModified        parentFolderId grandParentId tags 
##     <int> <chr>    <chr>         <dttm>              <dttm>                       <int>         <int> <chr>
##  1 426660 SD426660 251117_colle… 2025-11-17 16:13:27 2025-11-18 09:24:17             NA            NA <NA> 
##  2 426662 SD426662 251120_test_… 2025-11-17 16:17:44 2025-11-17 16:23:49             NA            NA <NA> 
##  3 424078 SD424078 test          2025-10-17 10:21:21 2025-10-17 10:21:27         242398          7813 rspa…
##  4 424072 SD424072 test          2025-10-17 09:21:55 2025-10-17 09:22:01         242398          7813 rspa…
##  5 422915 SD422915 251001_test_… 2025-09-30 08:33:22 2025-10-07 11:51:30             NA            NA <NA> 
##  6 421333 SD421333 250901_compa… 2025-09-01 09:06:12 2025-09-10 13:16:24             NA            NA <NA> 
##  7 420651 SD420651 250820_Suriv… 2025-08-19 14:34:17 2025-09-09 12:37:52             NA            NA <NA> 
##  8 421114 SD421114 250829_test_… 2025-08-28 12:47:23 2025-09-09 12:06:32             NA            NA <NA> 
##  9 421016 SD421016 250827_SAS_K… 2025-08-27 07:29:23 2025-08-29 11:06:20             NA            NA <NA> 
## 10 421238 SD421238 2025_08_25_S… 2025-08-29 08:59:39 2025-08-29 09:10:11             NA            NA <NA> 
## # ℹ 40 more rows
## # ℹ 3 more variables: tagMetaData <chr>, form <chr>, owner <chr>
```
…
