…
### Documents

#### Search

You can search for documents using the
[`document_search()`](https://lacdr.github.io/rspacer/reference/document_search.md)
function:

``` r
document_search("test")
```

    ## # A tibble: 50 × 11
    ##        id globalId name          created             lastModified        parentFolderId grandParentId tags
    ##     <int> <chr>    <chr>         <dttm>              <dttm>                       <int>         <int> <chr>
    ##  1 426750 SD426750 Untitled doc… 2025-11-18 14:04:50 2025-11-18 14:04:56         242398          7813 rspa…
    ##  2 426748 SD426748 Untitled doc… 2025-11-18 13:55:13 2025-11-18 13:55:19         242398          7813 rspa…
    ##  3 426716 SD426716 Untitled doc… 2025-11-18 12:15:15 2025-11-18 12:15:20         242398          7813 rspa…
    ##  4 426660 SD426660 251117_colle… 2025-11-17 16:13:27 2025-11-18 09:24:17             NA            NA <NA>
    ##  5 426662 SD426662 251120_test_… 2025-11-17 16:17:44 2025-11-17 16:23:49             NA            NA <NA>
    ##  6 424078 SD424078 test          2025-10-17 10:21:21 2025-10-17 10:21:27         242398          7813 rspa…
    ##  7 424072 SD424072 test          2025-10-17 09:21:55 2025-10-17 09:22:01         242398          7813 rspa…
    ##  8 422915 SD422915 251001_test_… 2025-09-30 08:33:22 2025-10-07 11:51:30             NA            NA <NA>
    ##  9 421333 SD421333 250901_compa… 2025-09-01 09:06:12 2025-09-10 13:16:24             NA            NA <NA>
    ## 10 420651 SD420651 250820_Suriv… 2025-08-19 14:34:17 2025-09-09 12:37:52             NA            NA <NA>
    ## # ℹ 40 more rows
    ## # ℹ 3 more variables: tagMetaData <chr>, form <chr>, owner <chr>
…
